{
  "packages": [
[#list packages as p]
    "package": {
      "name": "${p.name}",
      "version": "${p.version}",
      "archs": [ "${p.arch}" ],
      "repoURL": "${p.repourl}",
      "distro": "${p.distname}_${p.distversion}",
      "priority": "10",
      "checksum": "${p.sha}",
      "summary": "${p.summary}"
    }[#if p_has_next],[/#if]
[/#list]
  ]
}